<?xml version="1.0" encoding="UTF-8"?>
<svg width="17px" height="2px" viewBox="0 0 17 2" version="1.1" xmlns="http://www.w3.org/2000/svg" xmlns:xlink="http://www.w3.org/1999/xlink">
    <!-- Generator: sketchtool 47.1 (45422) - http://www.bohemiancoding.com/sketch -->
    <title>5BD9848E-BDAE-4DA2-BF84-461FB3D662FC</title>
    <desc>Created with sketchtool.</desc>
    <defs></defs>
    <g id="WAAK_Guides" stroke="none" stroke-width="1" fill="none" fill-rule="evenodd" stroke-linecap="square">
        <g id="WAAK_guides" transform="translate(-2784.000000, -2477.000000)" stroke-width="2" stroke="#AAAAAA">
            <g id="Group" transform="translate(1920.000000, 2464.000000)">
                <g id="p_1">
                    <g id="title">
                        <path d="M865,14 L880,14" id="minus"></path>
                    </g>
                </g>
            </g>
        </g>
    </g>
</svg>