<?xml version="1.0" encoding="UTF-8"?>
<svg width="28px" height="26px" viewBox="0 0 28 26" version="1.1" xmlns="http://www.w3.org/2000/svg" xmlns:xlink="http://www.w3.org/1999/xlink">
    <!-- Generator: sketchtool 47.1 (45422) - http://www.bohemiancoding.com/sketch -->
    <title>B72A09DE-7249-455D-9C2D-2C4FD75440CF</title>
    <desc>Created with sketchtool.</desc>
    <defs></defs>
    <g id="Produkt-(DOMCURA)" stroke="none" stroke-width="1" fill="none" fill-rule="evenodd">
        <g id="Desktop" transform="translate(-211.000000, -1192.000000)" fill-rule="nonzero" fill="#B7B7B7">
            <g id="Content" transform="translate(0.000000, -3.000000)">
                <g id="block_1" transform="translate(187.000000, 646.000000)">
                    <g id="PDF" transform="translate(24.000000, 549.000000)">
                        <g id="Pdf">
                            <path d="M18.1880342,22.017094 L18.1880342,23.9316239 C18.1880342,24.9889896 17.3308699,25.8461538 16.2735043,25.8461538 L1.91452991,25.8461538 C0.85716424,25.8461538 1.29489949e-16,24.9889896 0,23.9316239 L0,1.91452991 C-1.29489949e-16,0.85716424 0.85716424,1.94234923e-16 1.91452991,0 L11.4871795,0 L11.4871795,5.74358974 C11.4871795,6.80095542 12.3443437,7.65811966 13.4017094,7.65811966 L18.1880342,7.65811966 L18.1880342,9.57264957 L9.57264957,9.57264957 C7.98660106,9.57264957 6.7008547,10.8583959 6.7008547,12.4444444 L6.7008547,19.1452991 C6.7008547,20.7313477 7.98660106,22.017094 9.57264957,22.017094 L18.1880342,22.017094 Z" id="Shape"></path>
                            <path d="M12.4444444,0 L12.4444444,5.74358974 C12.4444444,6.27227258 12.8730266,6.7008547 13.4017094,6.7008547 L18.1880342,6.7008547 L12.4444444,0 Z" id="Shape"></path>
                            <path d="M10.5299145,13.4017094 L10.5299145,15.3162393 L12.4444444,15.3162393 C12.9731273,15.3162393 13.4017094,14.8876572 13.4017094,14.3589744 C13.4017094,13.8302915 12.9731273,13.4017094 12.4444444,13.4017094 L10.5299145,13.4017094 Z" id="Shape"></path>
                            <path d="M25.8461538,10.5299145 L9.57264957,10.5299145 C8.5152839,10.5299145 7.65811966,11.3870788 7.65811966,12.4444444 L7.65811966,19.1452991 C7.65811966,20.2026648 8.5152839,21.0598291 9.57264957,21.0598291 L25.8461538,21.0598291 C26.9035195,21.0598291 27.7606838,20.2026648 27.7606838,19.1452991 L27.7606838,12.4444444 C27.7606838,11.3870788 26.9035195,10.5299145 25.8461538,10.5299145 Z M12.4444444,16.2735043 L10.5299145,16.2735043 L10.5299145,19.1452991 L9.57264957,19.1452991 L9.57264957,12.4444444 L12.4444444,12.4444444 C13.5018101,12.4444444 14.3589744,13.3016087 14.3589744,14.3589744 C14.3589744,15.41634 13.5018101,16.2735043 12.4444444,16.2735043 Z M20.1025641,17.2307692 C20.1025641,18.2881349 19.2453999,19.1452991 18.1880342,19.1452991 L15.3162393,19.1452991 L15.3162393,12.4444444 L18.1880342,12.4444444 C19.2453999,12.4444444 20.1025641,13.3016087 20.1025641,14.3589744 L20.1025641,17.2307692 Z M25.8461538,13.4017094 L22.017094,13.4017094 L22.017094,15.3162393 L24.8888889,15.3162393 L24.8888889,16.2735043 L22.017094,16.2735043 L22.017094,19.1452991 L21.0598291,19.1452991 L21.0598291,12.4444444 L25.8461538,12.4444444 L25.8461538,13.4017094 Z" id="Shape"></path>
                            <path d="M16.2735043,13.4017094 L16.2735043,18.1880342 L18.1880342,18.1880342 C18.716717,18.1880342 19.1452991,17.7594521 19.1452991,17.2307692 L19.1452991,14.3589744 C19.1452991,13.8302915 18.716717,13.4017094 18.1880342,13.4017094 L16.2735043,13.4017094 Z" id="Shape"></path>
                        </g>
                    </g>
                </g>
            </g>
        </g>
    </g>
</svg>