<?xml version="1.0" encoding="UTF-8"?>
<svg width="11px" height="25px" viewBox="0 0 11 25" version="1.1" xmlns="http://www.w3.org/2000/svg" xmlns:xlink="http://www.w3.org/1999/xlink">
    <!-- Generator: sketchtool 47.1 (45422) - http://www.bohemiancoding.com/sketch -->
    <title>887EFB30-B17A-4CD5-9498-BDEBBCF752D6</title>
    <desc>Created with sketchtool.</desc>
    <defs></defs>
    <g id="All_produkt-(DOCURA)-" stroke="none" stroke-width="1" fill="none" fill-rule="evenodd">
        <g id="DOCURA_Main_Desktop" transform="translate(-1150.000000, -435.000000)" stroke="#FFFFFF">
            <g id="Content" transform="translate(0.000000, -3.000000)">
                <g id="img_banner">
                    <g id="slider_lr" transform="translate(1133.000000, 427.000000)">
                        <g id="Left" transform="translate(24.000000, 24.000000) rotate(-180.000000) translate(-24.000000, -24.000000) translate(0.000000, 0.000000)">
                            <polyline id="Path-2" transform="translate(25.904577, 24.500000) rotate(-90.000000) translate(-25.904577, -24.500000) " points="14 20 25.9045769 29 37.8091538 20"></polyline>
                        </g>
                    </g>
                </g>
            </g>
        </g>
    </g>
</svg>